ID,下注下限,下注上限,玩家带入最小金币,玩家带入最大金币
nIndex:int,nLowLimit:int,nUpperLimit:int,n_LowCion:int,n_UpperCion:int
1,50,500,0,10000
2,500,5000,10000,100000
3,5000,50000,100000,1000000
4,50000,500000,1000000,1000000000