道具id,道具名称,道具类型,道具说明,道具图标文件名,是否启用,启用平台,使用类型,合成方式序号,有效值合并类型,有效时间,有效次数,合并分组,触发有效值方式,截止日期,组合型碎片的目标道具ID,预警数量,格子叠加上限,PC商城出售类型,PC出售价格,返奖金币数,手机商城出售类型,手机出售价格,是否提供网站后台发送,后台道具分类,道具实际价值(金币),网站用分类字段,扩展字段
itemId:int,name:string,firstType:int,comment:string,itemIcon:string,status:int,platform:int,useType:json:array:int,combine:json:array:int,combineType:int,validTime:int,validCount:int,sumGroupId:int,triggerType:int,deadline:date,itemGroupId:int,alertNumPreFull:int,gridUp:int,PCSaleType:int,PCSalePrice:int,returnGold:int,PhoneSaleType:int,PhoneSalePrice:int,getSend:int,category:int,cost:int,CustomType:int,extend:string
96,1元话费卡碎片,50,5个碎片合成一张1元话话费卡。,huafei_02.png,1,0,[50],[13],1,,,,,,,,999,,,,,,,,3000,10,
101,5元话费合成器（30天）,60,可以合成话费卡的神器，越高级，越有利。,hechengqi_5.png,1,0,[70],[8],2,2592000,,,1,,,999,1,1,120000,,1,120000,1,,75000,60,
102,10元话费合成器（30天）,60,可以合成话费卡的神器，越高级，越有利。,hechengqi_10.png,1,0,[70],"[8,9]",2,2592000,,,1,,,999,1,1,200000,,1,200000,1,,150000,60,
103,20元话费合成器（30天）,60,可以合成话费卡的神器，越高级，越有利。,hechengqi_20.png,1,0,[70],"[8,9,10]",2,2592000,,,1,,,999,1,1,300000,,1,300000,1,,300000,60,
104,50元话费合成器（30天）,60,可以合成话费卡的神器，越高级，越有利。,hechengqi_50.png,1,0,[70],"[8,9,10,11]",2,2592000,,,1,,,999,1,1,500000,,1,500000,1,,750000,60,
105,100元话费合成器（30天）,60,可以合成话费卡的神器，越高级，越有利。,hechengqi_100.png,1,0,[70],"[8,9,10,11,12]",2,2592000,,,1,,,999,1,1,700000,,1,700000,1,,1500000,60,
207,改名卡,60,修改昵称的道具,namechange.png,1,0,[90],,1,,,,,,,999,999,,,,,,1,,100000,60,
501,1元话费卡,10,暂不支持流量兑换和兑换金币，支持话费充值，每天最多兑换2次。使用高级话费合成器可以合成大额话费卡，更有利于兑换。,huafei_1.png,1,0,[10],,1,,,,,,,999,999,,,,,,1,10,15000,10,
502,2元话费卡,10,暂不支持流量兑换和话费充值，支持兑换金币，每天最多兑换2次。使用高级话费合成器可以合成大额话费卡，更有利于兑换。,huafei_2.png,0,0,[10],,1,,,,,,,999,999,,,,,,0,10,30000,10,
503,5元话费卡,10,支持兑换金币，话费充值和流量兑换(流量兑换暂时不支持联通用户)，每天最多兑换2次。使用高级话费合成器可以合成大额话费卡，更有利于兑换。,huafei_5.png,1,0,"[10,20,990]",,1,,,,,,,999,999,,,,,,1,10,75000,10,
504,10元话费卡,10,"支持流量兑换,话费充值和兑换金币，每天最多兑换2次。使用高级话费合成器可以合成大额话费卡，更有利于兑换。",huafei_10.png,1,0,"[10,20,990]",,1,,,,,,,999,999,,,,,,1,10,150000,10,
505,15元话费卡,10,暂不支持流量兑换和话费充值，支持兑换金币，每天最多兑换2次。使用高级话费合成器可以合成大额话费卡，更有利于兑换。,huafei_15.png,0,0,"[10,990]",,1,,,,,,,999,999,,,,,,0,10,225000,10,
506,20元话费卡,10,暂不支持流量兑换，支持兑换金币和话费充值，每天最多兑换2次。使用高级话费合成器可以合成大额话费卡，更有利于兑换。,huafei_20.png,1,0,"[10,990]",,1,,,,,,,999,999,,,,,,1,10,300000,10,
507,30元话费卡,10,暂不支持流量兑换，支持兑换金币和话费充值，每天最多兑换2次。使用高级话费合成器可以合成大额话费卡，更有利于兑换。,huafei_30.png,1,0,"[10,990]",,1,,,,,,,999,999,,,,,,1,10,450000,10,
508,35元话费卡,10,暂不支持流量兑换和话费充值，支持兑换金币，每天最多兑换2次。使用高级话费合成器可以合成大额话费卡，更有利于兑换。,huafei_35.png,0,0,"[10,990]",,1,,,,,,,999,999,,,,,,0,10,525000,10,
509,50元话费卡,10,暂不支持流量兑换，支持兑换金币和话费充值，每天最多兑换2次。使用高级话费合成器可以合成大额话费卡，更有利于兑换。,huafei_50.png,1,0,"[10,990]",,1,,,,,,,999,999,,,,,,1,10,750000,10,
510,80元话费卡,10,暂不支持流量兑换和话费充值，支持兑换金币，每天最多兑换2次。使用高级话费合成器可以合成大额话费卡，更有利于兑换。,huafei_80.png,0,0,"[10,990]",,1,,,,,,,999,999,,,,,,0,10,1200000,10,
511,100元话费卡,10,暂不支持流量兑换，支持兑换金币和话费充值，每天最多兑换2次。,huafei_100.png,1,0,"[10,990]",,1,,,,,,,999,999,,,,,,1,10,1500000,10,
512,150元话费卡,10,暂不支持流量兑换和话费充值，支持兑换金币，每天最多兑换2次。,huafei_150.png,0,0,"[10,990]",,1,,,,,,,999,999,,,,,,0,10,2250000,10,
513,200元话费卡,10,暂不支持流量兑换，支持兑换金币和话费充值，每天最多兑换2次。,huafei_200.png,1,0,"[10,990]",,1,,,,,,,999,999,,,,,,1,10,3000000,10,
514,250元话费卡,10,暂不支持流量兑换和话费充值，支持兑换金币，每天最多兑换2次。,huafei_250.png,0,0,"[10,990]",,1,,,,,,,999,999,,,,,,0,10,3750000,10,
515,518元现金兑换券,10,518元现金兑换券，目前仅支持兑换金币。,518xianjin.png,1,0,[990],,1,,,,,,,999,999,,,,,,1,,7770000,12,
516,118元现金兑换券,10,118元现金兑换券，目前仅支持兑换金币。,118xianjin.png,1,0,[990],,1,,,,,,,999,999,,,,,,1,,1770000,12,
517,18元现金兑换券,10,18元现金兑换券，目前仅支持兑换金币。,18xianjin.png,1,0,[990],,1,,,,,,,999,999,,,,,,1,,270000,12,
518,Iphone6兑换券,10,Ihpone6兑换券，可兑换Ihpone6,iPhone6.png,1,0,[30],,1,,,,,,,999,999,,,,,,1,,37485000,11,
519,京东E卡50元兑换券,10,可兑换京东E卡50元兑换券,jingdongEka50.png,1,0,[31],,1,,,,,,,999,999,,,,,,1,,750000,11,
520,京东E卡100元兑换券,10,可兑换京东E卡100元兑换券,jingdongEka100.png,1,0,[31],,1,,,,,,,999,999,,,,,,1,,1500000,11,
521,金龙鱼食用油兑换券,10,可兑换一瓶金龙鱼黄金比例食用调和油1.8L,jinlongyudhq.png,1,0,[30],,1,,,,,,,999,999,,,,,,1,,480000,11,
522,福临门水晶米兑换券,10,可兑换一袋福临门水晶米大米5kg,damidhq.png,1,0,[30],,1,,,,,,,999,999,,,,,,1,,448500,11,
523,凯仕乐按摩披肩兑换券,10,用于兑换凯仕乐(国际品牌)KSR-18升级版按摩披肩 颈部腰部肩部腿部按摩器 温热捶打颈肩乐,db_kaishileanmo.png,1,0,[30],,1,,,,,,,999,999,,,,,,1,,1485000,11,
524,拍立得mini7s兑换券,10,用于兑换拍立得mini7s,db_pailide.png,1,0,[30],,1,,,,,,,999,999,,,,,,1,,5085000,11,
525,吉列手动剃须刀兑换券,10,用于兑换锋速3突破刮胡刀（1刀头）,tixudao.png,1,0,[30],,1,,,,,,,999,999,,,,,,1,,748500,11,
526,Iphone7P兑换券,10,Iphone7Plus兑换券，可兑换Iphone7Plus,db_iphone7plus.png,1,0,[30],,1,,,,,,,999,999,,,,,,1,,77985000,11,
527,IphoneX兑换券,10,IphoneX兑换券，可兑换一部IphoneX手机,db_dhq_iphoneX.png,1,0,[30],,1,,,,,2019/12/31 23:59,,999,999,,,,,,1,,125820000,11,
528,Iphone8P兑换券,10,Iphone8Plus兑换券，可兑换一部Iphone8 Plus手机,db_dhq_iphone8Plus.png,1,0,[30],,1,,,,,2019/12/31 23:59,,999,999,,,,,,1,,100320000,11,
529,Iphone8兑换券,10,Iphone8兑换券，可兑换一部Iphone8手机,db_dhq_iphone8.png,1,0,[30],,1,,,,,2019/12/31 23:59,,999,999,,,,,,1,,88320000,11,
530,佳能相机兑换券,10,佳能相机兑换券，可兑换一部佳能相机,canonxiangji.png,1,0,[30],,1,,,,,,,999,999,,,,,,1,,12000000,11,
531,华为荣耀8兑换券,10,华为荣耀8兑换券，可兑换一部华为荣耀8,huaweirongyao8.png,1,0,[30],,1,,,,,,,999,999,,,,,,1,,25500000,11,
532,鲁花玉米油兑换券,10,鲁花玉米油兑换券，可兑换一瓶鲁花玉米油,luhuayumiyou.png,1,0,[30],,1,,,,,,,999,999,,,,,,1,,1198500,11,
533,索尼微单兑换券,10,索尼微单兑换券，可兑换一部索尼微单,sonyweidan.png,1,0,[30],,1,,,,,,,999,999,,,,,,1,,32985000,11,
2001,话费追击炮（30天）,40,捕捉话费的最佳炮选。,sshjp.png,1,0,,,3,2592000,,1,1,,,999,1,2,30,300000,1,75000,1,,1,40,
2002,话费追击炮（7天）,40,捕捉话费的最佳炮选。,sshjp.png,1,0,,,3,604800,,1,1,,,999,1,2,10,100000,1,25000,1,,1,40,
2003,话费追击炮（3天）,40,捕捉话费的最佳炮选。,sshjp.png,1,0,,,3,259200,,1,1,,,999,1,2,5,50000,,,1,,1,40,
2004,话费追击炮（1天）,40,捕捉话费的最佳炮选,sshjp.png,1,0,,,3,86400,,1,1,,,999,1,,,,1,10000,1,,1,40,
2005,3元超值礼包,20,只需要话费3元即可获得价值21元的道具,sshjp.png,1,0,,,1,,,,,,,999,1,,,,,,,,210000,20,
2006,1万金币礼包,20,打开后可获得1万金币,img_libao.png,1,0,[60],,1,,,,,,,999,99999,2,1,,,,1,,10000,20,
3101,核能炮,40,最普通的炮台，发炮频率每秒3.5发，炮弹飞行速度较慢。随着使用炮台倍数的而变化炮管数量，发炮频率最快达到每秒4.5发。,fish_icon_energy.png,1,0,,,1,,,,,,,,1,,,,,,1,,1,40,
3102,双管核能炮,40,普通的炮台，发炮频率每秒4发，炮弹飞行速度一般,fish_icon_yonah.png,1,0,,,1,,,,,,,,1,,,,,,1,,1,40,
3103,三管核能炮,40,普通的炮台，发炮频率每秒4.5发，炮弹飞行速度略快,fish_icon_energy3.png,1,0,,,1,,,,,,,,1,,,,,,1,,1,40,
3104,双管核能炮(10倍),40,单纯依靠增加量来提升火力，效果还是显著的，只是会达到瓶颈,fish_icon_yonah.png,1,0,,,3,2592000,,3102,1,,,,1,,,,,,1,,1,40,
3105,风神炮(40倍),40,传说中风神铸造的炮台，发炮频率每秒4发，炮弹飞行速度一般，炮台有效期：3天（可在新手港湾使用）,fish_icon_aeolus.png,1,0,,,3,259200,,3105,1,,,,1,1,2000,,1,2000,1,,2000,40,
3106,风神炮(40倍),40,传说中风神铸造的炮台，发炮频率每秒4发，炮弹飞行速度一般，炮台有效期：7天（可在新手港湾使用）,fish_icon_aeolus.png,1,0,,,3,604800,,3105,1,,,,1,,,,,,1,,6667,40,
3107,风神炮(40倍),40,传说中风神铸造的炮台，发炮频率每秒4发，炮弹飞行速度一般，炮台有效期：30天（可在新手港湾使用）,fish_icon_aeolus.png,1,0,,,3,2592000,,3105,1,,,,1,,,,,,1,,20000,40,
3108,雷神炮(70倍),40,发炮时如雷霆震怒，发炮频率每秒4发，炮弹飞行速度略快，炮台有效期：3天（可在深海巨鲨使用）,fish_icon_thor.png,1,0,,,3,259200,,3108,1,,,,1,1,3000,,1,3000,1,,3000,40,
3109,雷神炮(70倍),40,发炮时如雷霆震怒，发炮频率每秒4发，炮弹飞行速度略快，炮台有效期：7天（可在深海巨鲨使用）,fish_icon_thor.png,1,0,,,3,604800,,3108,1,,,,1,,,,,,1,,7000,40,
3110,雷神炮(70倍),40,发炮时如雷霆震怒，发炮频率每秒4发，炮弹飞行速度略快，炮台有效期：30天（可在深海巨鲨使用）,fish_icon_thor.png,1,0,,,3,2592000,,3108,1,,,,1,,,,,,1,,30000,40,
3111,魅影极光(100倍),40,通体翠绿，仿佛鬼魅般神秘，发炮频率每秒4.5发，炮弹飞行速度略快，炮台有效期：3天（可在深海巨鲨房间使用）,fish_icon_phantom.png,1,0,,,3,259200,,3111,1,,,,1,1,5000,,1,5000,1,,5000,40,
3112,魅影极光(100倍),40,通体翠绿，仿佛鬼魅般神秘，发炮频率每秒4.5发，炮弹飞行速度略快，炮台有效期：7天（可在深海巨鲨房间使用）,fish_icon_phantom.png,1,0,,,3,604800,,3111,1,,,,1,,,,,,1,,11662,40,
3113,魅影极光(100倍),40,通体翠绿，仿佛鬼魅般神秘，发炮频率每秒4.5发，炮弹飞行速度略快，炮台有效期：30天（可在深海巨鲨房间使用）,fish_icon_phantom.png,1,0,,,3,2592000,,3111,1,,,,1,,,,,,1,,49980,40,
3114,烈焰金刚(500倍),40,烈火雄雄，焚尽海域，发炮频率每秒4.5发，炮弹飞行速度较快，炮台有效期：3天（可在深海巨鲨、龙宫宝藏使用）,fish_icon_vajra.png,1,0,,,3,259200,,3114,1,,,,1,1,8000,,1,8000,1,,8000,40,
3115,烈焰金刚(500倍),40,烈火雄雄，焚尽海域，发炮频率每秒4.5发，炮弹飞行速度较快，炮台有效期：7天（可在深海巨鲨、龙宫宝藏使用）,fish_icon_vajra.png,1,0,,,3,604800,,3114,1,,,,1,,,,,,1,,18662,40,
3116,烈焰金刚(500倍),40,烈火雄雄，焚尽海域，发炮频率每秒4.5发，炮弹飞行速度较快，炮台有效期：30天（可在深海巨鲨、龙宫宝藏使用）,fish_icon_vajra.png,1,0,,,3,2592000,,3114,1,,,,1,,,,,,1,,79980,40,
3117,财神炮(1000倍),40,财神的眷顾永伴吾身，发炮频率每秒5发，炮弹飞行速度较快，炮台有效期：3天（可在龙宫宝藏使用）,fish_icon_mammon.png,1,0,,,3,259200,,3117,1,,,,1,1,10000,,1,10000,1,,10000,40,
3118,财神炮(1000倍),40,财神的眷顾永伴吾身，发炮频率每秒5发，炮弹飞行速度较快，炮台有效期：7天（可在龙宫宝藏使用）,fish_icon_mammon.png,1,0,,,3,604800,,3117,1,,,,1,,,,,,1,,23331,40,
3119,财神炮(1000倍),40,财神的眷顾永伴吾身，发炮频率每秒5发，炮弹飞行速度较快，炮台有效期：30天（可在龙宫宝藏使用）,fish_icon_mammon.png,1,0,,,3,2592000,,3117,1,,,,1,,,,,,1,,99990,40,
3120,天使之怒(5000倍),40,天使的怒火净化一切，发炮频率每秒5.5发，炮弹飞行速度飞快，炮台有效期：3天（可在龙宫宝藏使用）,fish_icon_angell.png,1,0,,,3,259200,,3120,1,,,,1,1,30000,,1,30000,1,,30000,40,
3121,天使之怒(5000倍),40,天使的怒火净化一切，发炮频率每秒5.5发，炮弹飞行速度飞快，炮台有效期：7天（可在龙宫宝藏使用）,fish_icon_angell.png,1,0,,,3,604800,,3120,1,,,,1,,,,,,1,,70000,40,
3122,天使之怒(5000倍),40,天使的怒火净化一切，发炮频率每秒5.5发，炮弹飞行速度飞快，炮台有效期：30天（可在龙宫宝藏使用）,fish_icon_angell.png,1,0,,,3,2592000,,3120,1,,,,1,,,,,,1,,300000,40,
3123,恶魔之炎(10000倍),40,恶魔的黑炎吞噬万物，发炮频率每秒5.5发，炮弹飞行速度飞快，炮台有效期：3天（可在龙宫宝藏使用）,fish_icon_evil.png,1,0,,,3,259200,,3123,1,,,,1,1,50000,,1,50000,1,,50000,40,
3124,恶魔之炎(10000倍),40,恶魔的黑炎吞噬万物，发炮频率每秒5.5发，炮弹飞行速度飞快，炮台有效期：7天（可在龙宫宝藏使用）,fish_icon_evil.png,1,0,,,3,604800,,3123,1,,,,1,,,,,,1,,116662,40,
3125,恶魔之炎(10000倍),40,恶魔的黑炎吞噬万物，发炮频率每秒5.5发，炮弹飞行速度飞快，炮台有效期：30天（可在龙宫宝藏使用）,fish_icon_evil.png,1,0,,,3,2592000,,3123,1,,,,1,,,,,,1,,499980,40,
3996,狂暴,60,可使用狂暴技能，发射炮弹速度增加，并可能造成暴击效果，持续15秒,fish_icon_wild.png,1,0,,,1,,,,,,,,999,1,5000,,1,5000,1,,5000,60,
3997,瞄准镜,60,可使用锁定技能，无视阻挡自动对选中的鱼发炮，持续20秒,fish_icon_aim.png,1,0,,,1,,,,,,,,999,1,5000,,1,5000,1,,5000,60,
3998,冰冻弹,60,可使用冰冻技能，对场上的鱼造成全屏冰冻的效果，持续8秒,fish_icon_frozen.png,1,0,,,1,,,,,,,,999,1,5000,,1,5000,1,,5000,60,
4001,100元话费赛门票,30,德州扑克100元话费赛入场门票,huafeiruchangquan100.png,1,0,,,1,,,,,,,9999,9999,,,,,,1,,10000,30,
5001,Iphone手机碎片,50,集齐12500个碎片可合成一张IphoneX手机兑换券,db_iphoneX.png,1,0,[50],[14],1,,,,,2019/12/31 23:59,527,9999,9999,,,,,,1,,10800,50,
9998,元宝,60,在元宝房进行游戏的必要道具,mj_icon_coinroom.png,1,0,"[991,41]",[15],1,,,,,,,999999,999999,,,,,,1,,1000,70,
9999,房卡,60,可以用来创建牌友房，和小伙伴们一起玩,paiyoufangka.png,1,0,[41],,1,,,,,,,9999,9999,1,76800,,1,76800,1,,76800,70,
10000,金币,70,游戏流通货币,public_img_jinbi_03.png,,,,,,,,,,,,,,,,,,,,,1,70,
10001,钻石,70,游戏流通货币,public_img_diamond.png,,,,,,,,,,,,,,,,,,,,,15,70,
10002,A币,70,游戏流通货币（仅在PC端商城使用）,lihe3.png,,,,,,,,,,,,,,,,,,,,,10000,70,
100000,测试道具,60,测试用道具,public_img_diamond.png,1,0,[41],,1,,,,,,,9999,9999,,,,,,1,,1,60,
