ID,位置编号,奖励,资源,触发概率,转盘类型,单次抽奖消耗积分
id:int,pos:int,award:int,res:int,rate:int,type:int,cost:int
1,1,188,4,7,1,1000
2,2,1,1,195,1,1000
3,3,18,2,104,1,1000
4,4,28,2,78,1,1000
5,5,58,3,39,1,1000
6,6,1,1,195,1,1000
7,7,88,3,13,1,1000
8,8,5,1,130,1,1000
9,9,28,2,65,1,1000
10,10,1,1,195,1,1000
11,11,58,3,39,1,1000
12,12,18,2,104,1,1000
13,13,5,1,130,1,1000
14,1,8888,6,7,2,5000
15,2,5,1,195,2,5000
16,3,58,3,104,2,5000
17,4,288,3,78,2,5000
18,5,588,5,39,2,5000
19,6,5,1,195,2,5000
20,7,1888,5,13,2,5000
21,8,28,1,130,2,5000
22,9,288,2,65,2,5000
23,10,5,1,195,2,5000
24,11,588,5,39,2,5000
25,12,58,3,104,2,5000
26,13,28,1,130,2,5000
27,1,28888,7,7,3,20000
28,2,28,2,195,3,20000
29,3,288,5,104,3,20000
30,4,888,5,78,3,20000
31,5,2888,6,39,3,20000
32,6,28,2,195,3,20000
33,7,8888,6,13,3,20000
34,8,88,2,130,3,20000
35,9,888,5,65,3,20000
36,10,28,2,195,3,20000
37,11,2888,6,39,3,20000
38,12,288,5,104,3,20000
39,13,88,2,130,3,20000