分享ID,功能名称,功能ID,手机方案ID,PC方案ID,条件类型,条件参数,被推广人任务ID,奖励物品
id:int,name:string,functionId:int,phoneWayId:json:array:int,pcWayId:json:array:int,conditionType:json:array:int,condition:json:array:int,taskId:json:array:int,award:json:array:int
1,每日分享,,"[1,2,3,4]",,"[1,3,4]","[1,2,3600]",,"[10000,100]"
2,东山再起,,"[5,6,7,8]",,"[1,3,4,5]","[1,5,300,500]",,"[10000,500]"
3,推广赚金,,"[9,10,11,12]","[13,14,15,16,17]",,,[101],
4,分享赚话费,,"[18,19,20,21]","[22,23,24,25,26]",,,[102],