提示语id,错误码名字key,提示内容,类型,标题,备注
id:int,key:string,tip:string,type:int,title:string,note:string
0,id_start,公共id开始值,,,
0,success,成功,1,,公共部分
0,fail,失败,1,,公共部分
0,wait_opt_timeout,操作超时,1,,公共部分
0,verify_code_error,验证码错误,1,,公共部分
0,verify_code_expire,验证码过期,1,,公共部分
0,getsms_over_mins_times,验证码发送频繁，请稍后再试,1,,公共部分
0,getsms_over_hour_times,验证码发送频繁，请稍后再试,1,,公共部分
0,getsms_over_day_times,验证码发送频繁，请稍后再试,1,,公共部分
0,getsms_fail,发送短信异常，请检查网络状态后重新发送,1,,公共部分
0,server_exception,服务器异常,1,,公共部分
0,player_not_exist,用户不存在,1,,公共部分
0,player_gold_lack,玩家金币不足,1,,公共部分
0,func_unsupport,功能暂不支持,1,,公共部分
0,cfg_not_found,配置项不存在,1,,公共部分
0,illegal_request,非法请求,1,,公共部分
0,new_pwd_not_same_as_old,修改密码失败，新旧密码不能相同,1,,公共部分
0,module_not_open,模块未开放,1,,公共部分
0,data_exception,数据异常,1,,公共部分
0,system_busy,系统繁忙，请稍后重试,1,,公共部分
0,param_error,参数错误,1,,公共部分
0,txt_fmt_not_utf8,编码格式不是utf8编码,1,,公共部分
0,txt_include_sensitive_key,文本包括敏感词,1,,公共部分
0,txt_too_long,文本太长,1,,公共部分
0,txt_not_allow_empty,文本不能为空,1,,公共部分
0,txt_include_illegal_char,文本含有非法字符,1,,公共部分
0,invalid_ip,ip地址不合法,1,,公共部分
0,player_abean_lack,玩家A币不足,1,,公共部分
0,nickname_empty,昵称不能为空,1,,公共部分
0,nickname_not_utf8,昵称编码格式不对,1,,公共部分
0,nickname_include_illegal_char,昵称含有非法字符,1,,公共部分
0,nickname_too_short,昵称太短,1,,公共部分
0,nickname_too_long,昵称太长,1,,公共部分
0,nickname_include_sensitive_key,昵称含有敏感词,1,,公共部分
0,realname_empty,真实名字不能为空,1,,公共部分
0,realname_too_long,真实名字太长,1,,公共部分
0,realname_not_utf8,真实名字编码格式不对,1,,公共部分
0,realname_include_illegal_char,真实名字含有敏感词,1,,公共部分
,,,,,
-200,id_start,注册id开始值,,,
0,account_exist,账号名已存在,1,,注册
0,nick_exist,昵称已存在,1,,注册
0,phone_num_exist,手机号已被注册,1,,注册
0,phone_num_not_legal,手机号码格式错误，请输入11位的手机号,1,,注册
0,password_not_legal,格式错误，请输入8-18位数字、字母组合,1,,注册
0,already_regular_account,已是正式账号，无须转正,1,,注册
0,nick_not_legal,昵称格式错误,1,,注册
0,account_name_not_legal,账号名格式错误，请输入8-18位数字、字母组合,1,,注册
0,account_already_bind_phone,当前账号已经绑定手机号,1,,注册
0,account_not_bind_phone,当前账号未绑定手机号,1,,注册
0,account_need_regular,绑定失败，游客账号需先转正,1,,注册
0,kick_reason_other_loging,账号在其他地方登录,1,,注册
0,kick_reason_modify_password,账号密码修改需要重新登录,1,,注册
0,id_card_not_legal,身份证号格式错误,1,,注册
0,already_bind_id_card,已绑定身份证号,1,,注册
0,pwd_not_same_as_bankpwd,登录密码不能和银行密码一样,1,,注册
0,id_card_exist,身份证号已存在,1,,注册
,,,,,
-300,id_start,登陆id开始值,,,
0,account_not_exist,账号不存在,1,,登录
0,password_error,密码验证错误,1,,登录
0,other_loging,当前登录账号在另一电脑或另一设备登录,1,,登录
0,session_key_error,密钥错误,1,,登录
0,kick_reconnect,重连被踢,,,
0,account_forzen,账号冻结,1,,登录
0,account_temp_forzen,账号临时冻结,1,,登录
0,exception_device_login,异常设备登录,1,,登录
0,unfreeze_temp_forzen_verify_fail,解冻临时冻结状态验证失败,1,,登录
0,exception_device_verify_fail,异常设备验证失败,1,,登录
0,already_lock_device,抱歉，此账号只能在您锁定的PC设备登录,1,,登录
0,unlock_fail_not_lock_device,解锁失败,1,,登录
0,account_lock_other_device,账号已锁定其他机器,1,,登录
0,session_key_expire,密钥失效,1,,登陆
0,question_first_answer_fault,回答错误！此问题还有1次回答机会！,1,,登陆
0,question_second_answer_fault,回答错误！跳至下一题,1,,登陆
0,question_verify_fail,您已错误两题，已对账号进行保护！,1,,登录
0,id_card_verify_fault,您已五次身份证验证失败，已对账号进行保护！,1,,登陆
0,msg_verify_fault,您已五次手机验证码证验证失败，已对账号进行保护！,1,,登陆
0,login_verify_timeout,登录异常验证超时，请重试,1,,登陆
0,kick_ping_out,"您待机过长,正在尝试重连",1,,
0,kick_logout,正常下线,1,,
0,kick_by_server,被踢下线,1,,
0,dv_verify_idcard_error,身份证验证错误，请重新输入,1,,
0,token_expire_need_auth_again,凭证已失效 需重新授权,1,,
0,already_bind_other_third_acc,当前账号已绑定其它第三方账号,1,,
0,third_acc_already_bind_other_acc,当前第三方账号已绑定其它本地账号,1,,
0,already_login,已登陆,1,,
0,kick_unbind_thirdacc,解绑第三方账号需重新登陆,1,,
,,,,,
-400,id_start,背包id开始值,,,
0,player_bag_not_found,玩家背包未找到,1,,背包
0,player_bag_type_dismatch,背包大类不对，比如【背包】,1,,背包
0,player_login_password_miss,玩家密码错误,1,,背包
0,player_login_name_miss,玩家登录名错误,1,,背包
0,player_account_freeze,玩家冻结　,1,,背包
0,player_bank_password_miss,玩家个人银行密码错误,1,,背包
0,player_bag_amount_not_enough,玩家背包物品数量不足,1,,背包
0,player_bag_timeout,玩家背包物品过期,1,,背包
0,player_bag_deal_not_enough,玩家背包物品可用局数不足,1,,背包
0,player_bag_config_empty,读取背包配置表为空,1,,背包
0,player_baggift_config_empty,读取背包礼品配置表为空,1,,背包
0,player_bagcomb_config_empty,读取背包合成配置表为空,1,,背包
0,item_disable,物品不可用,1,,背包
0,item_limited,物品被限制 ,1,,背包
0,invalid_exchange_type,无效的兑换类型,1,,背包
0,item_expire,物品过期,1,,背包
0,bag_capacity_limit,背包容量不足,1,,背包
0,item_platform_limit,物品不可在此类型终端上使用,1,,背包
0,invalid_combine_id,无效的合成ID,1,,背包
0,item_not_active,物品不可激活,1,,背包
0,item_actived,物品已被激活,1,,背包
0,order_audit_num_limit,未审核订单达到数量上限,1,,背包
,,,,,
-500,id_start,银行id开始值,,,
0,bank_no_pwd,设置银行密码,1,,银行
0,bank_pwd_error,银行密码不正确,1,,银行
0,not_sufficient_funds,余额不足,1,,银行
0,same_as_login_passwd,银行密码不能跟登录密码相同,1,,银行
,,,,,
-600,id_start,邮件id开始值,,,
0,reward_mail_not_delete,未领取奖励的邮件不能删除，请领取,1,,邮件
0,mail_not_exist,没有可领取的附件哦,1,,邮件
0,mail_already_accepted,邮件已领取,1,,邮件
0,text_mail_not_able_accept,文本邮件不可领取,1,,邮件
,,,,,
-660,id_start,头像id开始值,,,
0,avatar_not_unlock,头像未解锁,1,,头像
0,avatar_auditing,您有头像正在审核，请通过审核后再使用上传功能,1,,头像
0,avatar_need_audit,上传成功，我们会在24小时内审核！,1,,头像
,,,,,
-700,id_start,游戏报名id开始值,,,
0,game_cfg_not_find,游戏配置未找到,1,,游戏
0,scene_serve_id_not_find,场景服务ID未找到,1,,游戏
0,already_wait_in_scene,玩家已经在游戏场景中,1,,游戏
0,level_limit,玩家等级不够，不能进入游戏,1,,游戏
0,area_limit,区域限制，不能进入游戏,1,,游戏
0,less_coin_limit,最小金币数量限制，不能进入游戏,1,,游戏
0,most_coin_limit,最大金币数量限制，不能进入游戏,1,,游戏
0,diamond_limit,钻石数量限制，不能进入游戏,1,,游戏
0,logon_type_limit,登录类型限制，不能进入游戏,1,,游戏
0,item_limit,携带道具数量限制，不能进入游戏,1,,游戏
0,room_type_not_exist,游戏房间类型不存在,1,,游戏
0,game_service_id_not_find,游戏服务ID未找到,1,,游戏
0,game_data_not_exist,游戏携带数据局不存在,1,,游戏
0,player_in_game,玩家已经在游戏中,1,,游戏
0,match_sign_coin_limit,金币不足不能报名比赛,1,,游戏
0,match_sign_diamond_limit,钻石不足不能报名比赛,1,,游戏
0,match_sign_level_limit,等级不足不能报名比赛,1,,游戏
0,match_sign_item_limit,道具不足不能报名比赛,1,,游戏
0,game_zone_is_empty,请求游戏列表不存在,1,,游戏
0,game_obj_not_exit,游戏对象不存在,1,,游戏
0,has_not_enter_room,未进入至场景,1,,游戏
0,has_no_game_reg_to_center,游戏服务未注册,1,,游戏
0,has_not_find_available_game_service,未找到该游戏对应服务,1,,游戏
0,serverload_full,游戏房间已满人,1,,游戏
0,room_and_table_has_register,房间桌台已经注册,1,,游戏
0,has_enter_other_game,已经进入了游戏,1,,游戏
0,has_sign_up_full_match,您已经报名了满人赛，是否放弃当前比赛,1,,游戏
0,has_sign_up_period_match,您已经报名了定时赛，且比赛快要开始，是否放弃当前比赛,1,,游戏
0,has_no_server_reg,没有服务器注册进来,1,,游戏
0,has_no_server_for_this_scene,此场景没有开启对应游戏服,1,,游戏
0,all_available_server_load_full,负载已满,1,,游戏
0,server_no_game_reg,游戏服此游戏未注册,1,,游戏
0,server_load_full,此服负载已满,1,,游戏
0,scene_for_gameatomtypeid_not_exist,场景未启动该游戏,1,,游戏
0,game_not_exit,该服务上未找到游戏对象,1,,游戏
0,not_find_player_in_game,未找到预加载玩家信息,1,,游戏
0,verify_key_wrong,验证码错误,1,,游戏
0,cannot_enter_scene_for_playing_in_game,已经在游戏中，不能进入,1,,游戏
0,only_for_three_game_at_most,您尚有未结算的游戏，请等待结算或进行重连,1,,游戏
0,game_mutual,游戏互斥,1,,游戏
0,game_reconnect_wrong,您的网络异常，请尝试重新进入！,1,,游戏
0,translate_msg_to_game,协议转发失败,1,,游戏
0,coin_num_limit_for_wealth,金币数量不足，扣除失败,1,,游戏
0,diamond_num_limit_for_wealth,钻石数量不足，扣除失败,1,,游戏
0,abean_num_limit_for_wealth,a币数量不足，扣除失败,1,,游戏
0,item_num_limit_for_wealth,道具数量不足，扣除失败,1,,游戏
0,create_scene_player_fail,进入场景失败,1,,游戏
0,game_in_maintenance,游戏维护中,1,,游戏
0,game_in_landlord_no_enter,斗地主游戏正在进行，暂不能进入其他斗地主游戏,1,,游戏
0,enter_fail,进入失败，请重新进入,1,,游戏
0,enter_waiting,进入中，请稍候,1,,游戏
,,,,,
-800,id_start,交易id开始值,,,游戏
0,order_need_audit,订单提交成功，我们将会尽快审核，还请耐心等待,1,,交易
0,order_not_exist,查询订单不存在,1,,交易
0,cannot_exchange_in_game,在游戏中不能兑换,1,,交易
0,cannot_exchange_has_auditting_order,您还有订单正在审核，暂不能提交新的订单,1,,交易
0,has_not_items,当前无可兑换资源,1,,交易
0,has_not_enough_times,兑换次数不足,1,,交易
0,gen_order_failed,生成订单号失败,1,,交易
0,exchange_type_not_exist,兑换类型不存在,1,,交易
,,,,,
-900,id_start,商城id开始值,,,
0,mall_type_not_exist,商城类型不存在,1,,商城
0,mall_goods_not_exist,找不到要购买的物品,1,,商城
0,mall_platform_not_support,不可在此平台上购买,1,,商城
0,mall_item_expire,物品已下架,1,,商城
0,mall_prod_not_support,该物品不能在此产品上购买,1,,商城
0,mall_item_cant_buy,道具不可购买,1,,商城
,,,,,
-1000,id_start,分享id开始值,,,
0,share_obj_not_exist,找不到分享类型,1,,分享
0,share_times_limit,领奖次数已达到上限，暂不能领取,1,,分享
0,share_cding,CD中,,,分享
0,share_gold_unreached,金币条件不足,,,分享
,,,,,
-1100,id_start,任务id开始值,,,
0,task_not_exist,任务不存在,1,,任务
0,task_already_accepted,任务奖励已领取,1,,任务
0,task_not_finish,任务未完成不可领取奖励,1,,任务
,,,,,
-1200,id_start,道具赠送id开始值,1,,道具赠送
0,base_data_mgr_null,baseDataMgr is NULL,1,,道具赠送
0,not_regular_not_donate,不是正式账号不能赠送道具,1,,道具赠送
0,not_bind_phone_not_donate,未绑定手机不能赠送道具,1,,道具赠送
0,item_not_exist,道具不存在,1,,道具赠送
0,item_propery_not_donate,道具属性不能赠送,1,,道具赠送
0,donate_item_not_engough,背包可赠送道具数量不足,1,,道具赠送
0,donate_item_limit_not_exist,每次赠送道具最大数量配置不存在,1,,道具赠送
0,greater_max_donate_limit_limit,赠送道具数量超出每次可赠送最大数量,1,,道具赠送
0,donat_max_times_not_exist,每日赠送最大次数配置不存在,1,,道具赠送
0,greater_max_donate_times_limit,超出每日赠送最大次数,1,,道具赠送
0,donate_max_err_cnt_not_exist,每日赠送最大出错次数,1,,道具赠送
0,donate_max_err_cnt_time_not_exist,达到最大次数时多长时间内不允许赠送配置不存在,1,,道具赠送
0,during_donate_max_err_cnt_time,已达到最大出错次数，暂时不能赠送，请稍后再试,1,,道具赠送
0,donate_min_interval_not_exist,赠送请求最短时间间隔配置不存在,1,,道具赠送
0,donate_rate_too_fast,赠送频率太快，请稍后再试,1,,道具赠送
0,donate_confirm_rate_too_fast,赠送确认频率太快，请稍后再试,1,,道具赠送
0,common_cfg_not_exist,common配置不存在,1,,道具赠送
0,donate_item_num_invalid,赠送数量不合法,1,,道具赠送
0,donee_not_self,不能赠送给自己,1,,道具赠送
0,donate_token_room_round_less,未满局数，不能赠送,1,,道具赠送