任务ID,任务类型,名称,描述,开始时间,结束时间,达成条件,达成次数,生效房间,重置周期,奖励生成方式,奖励,随机生成份数
id:int,taskType:int,name:string,desc:string,beginTime:date,endTime:date,condition:int,targetNum:int,gameIDs:array<int>,reStartType:int,rewardGenType:int,reward:array<array<int>>,totalGenNum:int
1,18,18元话费任务,第一次登陆,,,,1,[0],2,1,"[[501,1]]",
2,18,18元话费任务,百发百中,,,,1,"[106001,106002,106003]",2,1,"[[501,1]]",
3,18,18元话费任务,神仙靠左手,,,,3,"[125002,125003,125004,125005]",2,1,"[[501,1]]",
4,18,18元话费任务,抢地主,,,10,1,"[101021,102021]",2,1,"[[501,1]]",
5,18,18元话费任务,牛气冲天,,,,1,"[124001,105001]",2,1,"[[502,1]]",
6,18,18元话费任务,鲨海夺食,,,,1,"[106003]",2,1,"[[502,1]]",
7,18,18元话费任务,牛市稳赚金,,,,300000,"[124001,105001]",2,1,"[[503,1]]",
8,18,18元话费任务,幸运常相随,,,,300000,"[160001]",2,1,"[[503,1]]",