短信功能类型id,短信功能类型,触发功能模块,短信提醒内容
id:int,type:string,module:string,noticeSMS:string
0,verify_code,验证码,【@channelName@】本次验证码:@verifyCode@，如非您本人操作，请及时联系客服临时保护帐号或修改密码。
1,expection_login_fail,异常登录失败,【@channelName@】您此手机绑定的帐号@accountName@于@nowDate@异常登录失败，如非您本人操作，请及时联系客服临时保护帐号或修改密码。
2,expection_login_success,异常登录成功,【@channelName@】您此手机绑定的帐号@accountName@于@nowDate@异常登录成功，如非您本人操作，请及时联系客服临时保护帐号或修改密码。