鱼的索引,鱼的倍率,房间出鱼权重,产出量1至所填写值的闭区间随机,路径起点,路径终点,boss路径,种类1普通2奖金3buff鱼4boss5话费鱼6宝箱7电鱼,广播类型1本桌2当前房间3全服,是否掉落金币1是0否,掉率钻石几率,掉落钻石数量范围随机,掉落物品1几率,掉落物品1,掉落物品1数量,掉落物品2几率,掉落物品2,掉落物品1数量,掉落物品1几率,掉落物品3,掉落物品1数量
nIndex:int,tRate:json:array:int,tRoomLv:json:array:int,nCount:int,nPathBegin:int,nPathEnd:int,bossPath:array<array<int>>,nType:int,nBroadcast:int,nIsGold:int,nDiamonLv:int,arrayDiamonList:json:array:int,nItem1Lv:int,nItem1ID:int,arrayItem1List:json:array:int,nItem2Lv:int,nItem2ID:int,arrayItem2List:json:array:int,nItem3Lv:int,nItem3ID:int,arrayItem3List:json:array:int
1,[2],"[106001,260,106002,260,106003,260]",1,1,160,,1,0,1,0,"[0,0]",0,0,"[0,0]",0,0,"[0,0]",0,0,"[0,0]"
2,[2],"[106001,260,106002,260,106003,260]",1,1,160,,1,0,1,0,"[0,0]",0,0,"[0,0]",0,0,"[0,0]",0,0,"[0,0]"
3,[3],"[106001,260,106002,260,106003,260]",1,1,160,,1,0,1,0,"[0,0]",0,0,"[0,0]",0,0,"[0,0]",0,0,"[0,0]"
4,[4],"[106001,280,106002,280,106003,280]",1,1,160,,1,0,1,0,"[0,0]",0,0,"[0,0]",0,0,"[0,0]",0,0,"[0,0]"
5,[5],"[106001,280,106002,280,106003,280]",1,1,160,,1,0,1,0,"[0,0]",0,0,"[0,0]",0,0,"[0,0]",0,0,"[0,0]"
6,[6],"[106001,280,106002,280,106003,280]",1,1,160,,1,0,1,0,"[0,0]",0,0,"[0,0]",0,0,"[0,0]",0,0,"[0,0]"
7,[7],"[106001,280,106002,280,106003,280]",1,1,160,,1,0,1,0,"[0,0]",0,0,"[0,0]",0,0,"[0,0]",0,0,"[0,0]"
8,[8],"[106001,280,106002,280,106003,280]",1,1,160,,1,0,1,0,"[0,0]",0,0,"[0,0]",0,0,"[0,0]",0,0,"[0,0]"
9,[9],"[106001,280,106002,280,106003,280]",1,1,160,,1,0,1,0,"[0,0]",0,0,"[0,0]",0,0,"[0,0]",0,0,"[0,0]"
10,[10],"[106001,260,106002,280,106003,280]",1,1,160,,1,0,1,0,"[0,0]",0,0,"[0,0]",0,0,"[0,0]",0,0,"[0,0]"
12,[12],"[106001,260,106002,280,106003,280]",1,1,160,,1,0,1,0,"[0,0]",0,0,"[0,0]",0,0,"[0,0]",0,0,"[0,0]"
15,[15],"[106001,150,106002,350,106003,350]",1,1,160,,1,0,1,0,"[0,0]",0,0,"[0,0]",0,0,"[0,0]",0,0,"[0,0]"
18,[18],"[106001,150,106002,350,106003,350]",1,1,160,,1,0,1,0,"[0,0]",0,0,"[0,0]",0,0,"[0,0]",0,0,"[0,0]"
19,[18],"[106001,10,106002,350,106003,350]",1,1,160,,7,0,1,0,"[0,0]",0,0,"[0,0]",0,0,"[0,0]",0,0,"[0,0]"
20,[20],"[106001,150,106002,350,106003,350]",1,1,160,,1,0,1,0,"[0,0]",0,0,"[0,0]",0,0,"[0,0]",0,0,"[0,0]"
24,[24],"[106001,150,106002,250,106003,250]",1,1,160,,7,0,1,0,"[0,0]",1,0,"[1,1]",0,0,"[0,0]",0,0,"[0,0]"
25,[25],"[106001,120,106002,250,106003,250]",1,1,160,,1,0,1,0,"[0,0]",1,0,"[1,1]",0,0,"[0,0]",0,0,"[0,0]"
30,[30],"[106001,150,106002,250,106003,250]",1,1,160,,1,0,1,0,"[0,0]",1,0,"[1,1]",0,0,"[0,0]",0,0,"[0,0]"
31,[30],"[106001,10,106002,250,106003,250]",1,1,160,,7,0,1,0,"[0,0]",1,0,"[1,1]",0,0,"[0,0]",0,0,"[0,0]"
35,[35],"[106001,120,106002,180,106003,180]",1,1,160,,1,0,1,0,"[0,0]",1,0,"[1,1]",1,0,"[1,1]",0,0,"[0,0]"
36,[72],"[106001,10,106002,180,106003,180]",1,1,160,,7,0,1,0,"[0,0]",1,0,"[1,1]",1,0,"[1,1]",0,0,"[0,0]"
37,[48],"[106001,10,106002,180,106003,180]",1,1,160,,7,0,1,0,"[0,0]",1,0,"[1,1]",1,0,"[1,1]",0,0,"[0,0]"
38,[60],"[106001,10,106002,180,106003,180]",1,1,160,,7,0,1,0,"[0,0]",1,0,"[1,1]",1,0,"[1,1]",0,0,"[0,0]"
40,"[40,50,60,70,80,90,100]","[106001,90,106002,180,106003,180]",1,1,160,"[[171,172,171],[172,171,172]]",4,2,1,0,"[0,0]",1,0,"[1,1]",1,0,"[1,1]",0,0,"[0,0]"
50,"[100,200,300]","[106001,90,106002,150,106003,150]",1,1,160,"[[171,172,171],[172,171,172]]",4,2,1,0,"[0,0]",2,0,"[1,1]",2,0,"[1,1]",0,0,"[0,0]"
200,[400],"[106001,120,106002,120,106003,120]",1,1,160,,3,0,1,0,"[0,0]",0,0,"[0,0]",0,0,"[0,0]",0,0,"[0,0]"
201,[100],"[106001,120,106002,120,106003,120]",1,1,160,,3,0,1,0,"[0,0]",0,0,"[0,0]",0,0,"[0,0]",0,0,"[0,0]"
202,"[100,200,300]","[106001,120,106002,120,106003,120]",1,1,160,"[[171,172,171],[172,171,172]]",4,2,1,0,"[0,0]",0,0,"[0,0]",0,0,"[0,0]",0,0,"[0,0]"
300,"[300,400,500]","[106001,70,106002,70,106003,70]",1,1,160,"[[171,172,171],[172,171,172]]",4,2,1,0,"[0,0]",3,0,"[1,1]",3,0,"[1,1]",0,0,"[0,0]"
401,[2],"[106001,100,106002,150,106003,150]",1,1,160,,3,0,1,0,"[0,0]",0,0,"[0,0]",0,0,"[0,0]",0,0,"[0,0]"
402,[2],"[106001,100,106002,150,106003,150]",1,1,160,,3,0,1,0,"[0,0]",0,0,"[0,0]",0,0,"[0,0]",0,0,"[0,0]"
403,[3],"[106001,100,106002,150,106003,150]",1,1,160,,3,0,1,0,"[0,0]",0,0,"[0,0]",0,0,"[0,0]",0,0,"[0,0]"
404,[4],"[106001,100,106002,150,106003,150]",1,1,160,,3,0,1,0,"[0,0]",0,0,"[0,0]",0,0,"[0,0]",0,0,"[0,0]"
405,[5],"[106001,100,106002,150,106003,150]",1,1,160,,3,0,1,0,"[0,0]",0,0,"[0,0]",0,0,"[0,0]",0,0,"[0,0]"
406,[6],"[106001,100,106002,150,106003,150]",1,1,160,,3,0,1,0,"[0,0]",0,0,"[0,0]",0,0,"[0,0]",0,0,"[0,0]"
407,[7],"[106001,100,106002,150,106003,150]",1,1,160,,3,0,1,0,"[0,0]",0,0,"[0,0]",0,0,"[0,0]",0,0,"[0,0]"
408,[8],"[106001,100,106002,150,106003,150]",1,1,160,,3,0,1,0,"[0,0]",0,0,"[0,0]",0,0,"[0,0]",0,0,"[0,0]"
409,[9],"[106001,100,106002,150,106003,150]",1,1,160,,3,0,1,0,"[0,0]",0,0,"[0,0]",0,0,"[0,0]",0,0,"[0,0]"
410,[10],"[106001,100,106002,150,106003,150]",1,1,160,,3,0,1,0,"[0,0]",0,0,"[0,0]",0,0,"[0,0]",0,0,"[0,0]"
