商城道具ID,对应物品id,道具名称,有效时间,道具说明,物品图片,对应物品数量,货币类型1金币2钻石3龙珠4RMB,对应单价
nIndex:int,nItemId:int,name:string,validTime:string,comment:string,szItemSource:string,nCount:int,nCoin:int,nPrice:int
1,3123,恶魔之炎(10000倍),3天,恶魔的黑炎吞噬万物，发炮频率每秒5.5发，炮弹飞行速度飞快,fish_icon_evil.png,1,1,50000
2,3120,天使之怒(5000倍),3天,天使的怒火净化一切，发炮频率每秒5.5发，炮弹飞行速度飞快,fish_icon_angell.png,1,1,30000
3,3117,财神炮(1000倍),3天,财神的眷顾永伴吾身，发炮频率每秒5发，炮弹飞行速度较快,fish_icon_mammon.png,1,1,10000
4,3114,烈焰金刚(500倍),3天,烈火雄雄，焚尽海域，发炮频率每秒4.5发，炮弹飞行速度较快,fish_icon_vajra.png,1,1,8000
5,3111,魅影极光(100倍),3天,通体翠绿，仿佛鬼魅般神秘，发炮频率每秒4.5发，炮弹飞行速度略快,fish_icon_phantom.png,1,1,5000
6,3108,雷神炮(70倍),3天,发炮时如雷霆震怒，发炮频率每秒4发，炮弹飞行速度略快,fish_icon_thor.png,1,1,3000
7,3105,风神炮(40倍),3天,传说中风神铸造的炮台，发炮频率每秒4发，炮弹飞行速度一般,fish_icon_aeolus.png,1,1,2000
8,3998,冰冻弹X1,永久,可使用冰冻技能，对场上的鱼造成全屏冰冻的效果，持续8秒,fish_icon_frozen.png,1,1,5000
9,3998,冰冻弹X10,永久,可使用冰冻技能，对场上的鱼造成全屏冰冻的效果，持续8秒,fish_icon_frozen.png,10,1,50000
10,3998,冰冻弹X100,永久,可使用冰冻技能，对场上的鱼造成全屏冰冻的效果，持续8秒,fish_icon_frozen.png,100,1,500000
11,3997,瞄准镜X1,永久,可使用锁定技能，自动对选中的鱼发射炮弹，持续20秒,fish_icon_aim.png,1,1,5000
12,3997,瞄准镜X10,永久,可使用锁定技能，自动对选中的鱼发射炮弹，持续20秒,fish_icon_aim.png,10,1,50000
13,3997,瞄准镜X100,永久,可使用锁定技能，自动对选中的鱼发射炮弹，持续20秒,fish_icon_aim.png,100,1,500000
14,3996,狂暴X1,永久,可使用狂暴技能，发射炮弹速度增加，并可能造成暴击效果，持续15秒,fish_icon_wild.png,1,1,5000
15,3996,狂暴X10,永久,可使用狂暴技能，发射炮弹速度增加，并可能造成暴击效果，持续15秒,fish_icon_wild.png,10,1,50000
16,3996,狂暴X100,永久,可使用狂暴技能，发射炮弹速度增加，并可能造成暴击效果，持续15秒,fish_icon_wild.png,100,1,500000
