鱼的倍数,房间出鱼权重,产出量1至所填写值的闭区间随机,路径起点,路径终点,boss路径,种类1普通2奖金3buff鱼4boss5话费鱼,广播类型
nIndex:int,tRoomLv:json:array:int,nCount:int,nPathBegin:int,nPathEnd:int,bossPath:array<array<int>>,nType:int,nBroadcast:int
2,"[106101,300]",1,1,160,,1,0
3,"[106101,300]",1,1,160,,1,0
4,"[106101,300]",1,1,160,,1,0
5,"[106101,280]",1,1,160,,1,0
8,"[106101,260]",1,1,160,,1,0
10,"[106101,230]",1,1,160,,1,0
12,"[106101,200]",1,1,160,,1,0
15,"[106101,200]",1,1,160,,1,0
20,"[106101,200]",1,1,160,,1,0
30,"[106101,300]",1,1,160,,2,0
40,"[106101,250]",1,1,160,,2,0
50,"[106101,200]",1,1,160,,2,0
80,"[106101,150]",1,1,160,,2,0
100,"[106101,100]",1,1,160,"[[173,174,173],[174,173,174]]",4,0
