任务id,描述,金币,钻石,物品,物品数量
nId:int,describe:string,nCoin:int,nDiamon:int,tItem:json:array:int,tItemCount:json:array:int
4,1.解锁5倍炮台,0,0,"[3998,3997,3996]","[10,10,10]"
13,2.解锁30倍炮台,0,0,"[3998,3997,3996]","[15,15,15]"
22,3.解锁100倍炮台,0,0,"[501,3115]","[2,1]"
30,4.解锁500倍炮台,0,200,"[503,3118]","[1,1]"
35,5.解锁1000倍炮台,0,3000,[504],[1]
43,6.解锁5000倍炮台,200000,0,"[507,3124]","[1,1]"
48,7.解锁10000倍炮台,0,20000,[511],[1]
