唯一id,每波鱼阵的生命时长秒单位,正常出鱼间隔即询问客户端鱼量,出队列鱼间隔时间,队列数量区间,buff鱼间隔时间,buff鱼数量区间,出鱼阵间隔,鱼阵结束恢复正常时间,奖金鱼时间间隔,奖金鱼数量区间,房卡物品id,boss间隔,话费鱼间隔,话费鱼上限数量,宝箱间隔,宝箱上限数量,炮弹上限检测30秒数量,未开炮踢出时间值单位秒,字典质数,公测活动时间开始时间戳,公测活动时间结束时间戳,出电鱼间隔时间,电鱼数量区间,出新队列鱼间隔时间,新队列数量区间
nIndex:int,nMaxLive:int,nAskInterval:int,nQueueInterval:int,tQueueCount:json:array:int,nBuffInterval:int,tBuffCount:json:array:int,nArrayInterval:int,nRecoverTime:int,nAwardFishInterval:int,tAwardFish:json:array:int,nTableCard:int,nBossTime:int,phoneFishTime:int,phoneFishMaxCount:int,nBoxTime:int,nBoxMaxCount:int,nBulletLimit:int,nFireLimit:int,nPrimeNum:int,nActiveBeginTime:int,nActiveEndTime:int,nElectricInterval:int,tElectricCount:json:array:int,nNewQueueInterval:int,tNewQueueCount:json:array:int
1,28,5,25,"[1,1]",10,"[1,1]",300,13,5,"[2,3]",3999,5,40,1,60,1,270,120,89,1507795279,1512057599,20,"[1,1]",35,"[1,1]"
