游戏ID,游戏分类,危险区下限(单位分),安全区下限(单位分),安全区上限(单位分),危险区上限(单位分)
id:int,gameKindName:string,dangerDownLimit:int,safeDownLimit:int,safeUpLimit:int,dangerUpLimit:int
101101,经典斗地主,-100000,-10000,10000000,1000000000
101102,经典斗地主,-1000000,-100000,10000000,1000000000
101103,经典斗地主,-10000000,-1000000,10000000,1000000000
105001,百人牛牛,-10000000,-1000000,10000000,1000000000
106001,欢乐捕鱼,-100000,-10000,10000000,1000000000
106002,欢乐捕鱼,-1000000,-100000,10000000,1000000000
106003,欢乐捕鱼,-10000000,-1000000,10000000,1000000000
141001,单挑,-10000000,-1000000,10000000,1000000000
151001,龙虎斗,-10000000,-1000000,10000000,1000000000
161001,百家乐,-10000000,-1000000,10000000,1000000000
171001,诈金花,-100000,-10000,10000000,1000000000
171002,诈金花,-1000000,-100000,10000000,1000000000
171003,诈金花,-10000000,-1000000,10000000,1000000000
181001,财神到,-10000000,-1000000,10000000,1000000000
206001,跑得快,-100000,-10000,10000000,1000000000
206002,跑得快,-1000000,-100000,10000000,1000000000
206003,跑得快,-10000000,-1000000,10000000,1000000000
