游戏id,玩家出牌时间 毫秒,玩家出牌时间1 毫秒,玩家出牌时间2 毫秒,玩家出牌惩罚时间 毫秒,机器人携带最小金额,机器人携带最大金额
id:int,outTime:int,outTime1:int,outTime2:int,outTimePun:int,aiMinScore,aiMaxScore
206001,15000,10000,7000,5000,5000,10000
206002,15000,10000,7000,5000,15000,30000
206003,15000,10000,7000,5000,50000,100000
