游戏最小基本类型ID,游戏分类,手机端游戏名称,游戏分类ID,游戏分类文件名,房间类型,房间桌子数,房间底分、进房最少金币限制、进房最大金币限制、踢出房间金币限制,携带金币类型,玩家输分封顶金币数,进桌验证方式,每桌最低游戏人数,防作弊功能类型,每桌椅子数,房间生效时间,房间开放日期类型, ,房间开放时间类型,房间开放时间,是否开启AI机制,是否开启虚拟人数,各时间段虚拟人数范围,房费,税收(%),游戏中报名比赛最低时间间隔,强退惩罚金币数目,强退是否邮件通知开奖结果,开赛条件类型,开赛选项1,开赛选项2,开赛选项3,报名条件文本,满人赛满多少人开赛,门票不足对应前往比赛的最小基本类型ID,房间框左下方显示(手机端文本),房间框右下方显示(手机端文本),报名页左边第一行的开赛时间提示(手机端文本),报名页比赛详情内容(手机端文本),报名页比赛奖励内容(手机端文本),扩展字段
gameAtomTypeId:int,gameKindName:string,phoneGameName:string,gameKindType:int,gameKindFileName:string,roomType:int,tableCnt:int,roomMinScore:json:map:{string;CRoomScoreMoney},carryGoldType:int,loseTopMoney:int,enterTableValidateType:json:array:int,beginGameMinCnt:int,preventType:int,chairCount:int,roomEffectiveDate:map{date;date},roomOpenDateType:int,roomOpenDate:json:array:int,roomOpenTimeType:int,roomOpenTime:json:array:CRoomOpenTime,isOpenAi:int,isOpenVirtualCnt:int,virtualCnt:json:array:CVirtualPeopleCnt,roomCost:int,gameTax:int,signUpTimeInterval:int,punishMoneyCnt:int,isMailNotifyResult:int,conditionType:int,condition1:json:array:CSignUpCond,condition2:json:array:CSignUpCond,condition3:json:array:CSignUpCond,signUpConditionText:string,beginMatchCnt:int,toGameAtomTypeId:int,roomLeftDownTips:string,phonegameRightDownTip:json:map:{string;string},applyLeftFirstLineTips:json:map:{string;string},matchDetail:string,matchReward:string,extend2:int
101101,经典斗地主,新手房,101,LandEx,4,,"{""1"":{""min"":500,""max"":1000000000,""kick"":0}}",1,,[0],3,3,3,,,,,,1,,,,3,,,,,,,,,,,,,,,,
101102,经典斗地主,初级房,101,LandEx,4,,"{""10"":{""min"":5000,""max"":1000000000,""kick"":0}}",1,,[0],3,3,3,,,,,,1,,,,3,,,,,,,,,,,,,,,,
101103,经典斗地主,中级房,101,LandEx,4,,"{""100"":{""min"":50000,""max"":1000000000,""kick"":0}}",1,,[0],3,3,3,,,,,,1,,,,3,,,,,,,,,,,,,,,,
101201,经典斗地主,9人比赛,101,LandEx,2,,"{""1"":{""min"":1000}}",0,,[0],3,3,3,,,,,,1,,,,5,,,,,"[{""type"":2,""num"":100}]",,,,9,,,,,,,
101202,经典斗地主,9人比赛,101,LandEx,2,,"{""1"":{""min"":10000}}",0,,[0],3,3,3,,,,,,1,,,,5,,,,,"[{""type"":2,""num"":1000}]",,,,9,,,,,,,
101203,经典斗地主,9人比赛,101,LandEx,2,,"{""1"":{""min"":100000}}",0,,[0],3,3,3,,,,,,1,,,,5,,,,,"[{""type"":2,""num"":10000}]",,,,9,,,,,,,
105001,百人牛牛,世界房,105,CrazyOxEx,1,4,"{""100"":{""min"":0,""max"":1000000000,""kick"":100}}",1,,[0],2,,100,,,,,,1,,,,,,,,,,,,,,,,,,,,
106001,欢乐捕鱼,初级场,106,FishEx,4,2000,"{""1"":{""min"":1500,""max"":1000000000,""kick"":0}}",1,,[0],1,,4,,,,,,1,,,,,,,,,,,,,,,,,,,,
106002,欢乐捕鱼,中级房,106,FishEx,4,2000,"{""10"":{""min"":5000,""max"":1000000000,""kick"":0}}",1,,[0],1,,4,,,,,,1,,,,,,,,,,,,,,,,,,,,
106003,欢乐捕鱼,高级房,106,FishEx,4,2000,"{""100"":{""min"":10000,""max"":1000000000,""kick"":0}}",1,,[0],1,,4,,,,,,1,,,,,,,,,,,,,,,,,,,,
109001,德州扑克,100金币入场,109,DZGameEx,4,1000,"{""1"":{""min"":100,""max"":200000,""kick"":0,""takemax"":200000}}",3,,[0],2,,7,,,,,,1,,,,,,,,,,,,,,,,,,,,
109002,德州扑克,10000金币入场,109,DZGameEx,4,1000,"{""1"":{""min"":10000,""max"":500000,""kick"":0,""takemax"":500000}}",3,,[0],2,,7,,,,,,1,,,,,,,,,,,,,,,,,,,,
109003,德州扑克,100000金币入场,109,DZGameEx,4,1000,"{""1"":{""min"":50000,""max"":2000000,""kick"":0,""takemax"":2000000}}",3,,[0],2,,7,,,,,,1,,,,,,,,,,,,,,,,,,,,
109004,德州扑克,500000金币入场,109,DZGameEx,4,1000,"{""1"":{""min"":200000,""max"":1000000000,""kick"":0,""takemax"":1000000000}}",3,,[0],2,,7,,,,,,1,,,,,,,,,,,,,,,,,,,,
121001,大众麻将,新手房,121,Mahjong,4,,{"1":{"min":50}},1,,[0],4,,4,,,,,,1,,,,,,,,,,,,,,,,,,,,
121002,大众麻将,初级房,121,Mahjong,4,,{"10":{"min":500}},1,,[0],4,,4,,,,,,1,,,,,,,,,,,,,,,,,,,,
121003,大众麻将,中级房,121,Mahjong,4,,{"100":{"min":5000}},1,,[0],4,,4,,,,,,1,,,,,,,,,,,,,,,,,,,,
121004,大众麻将,高级房,121,Mahjong,4,,{"1000":{"min":50000}},1,,[0],4,,4,,,,,,1,,,,,,,,,,,,,,,,,,,,
160001,幸运25,世界房,160,Lucky,1,1,,1,,[0],1,,1,,,,,,1,,,,,,,,,,,,,,,,,,,,
131001,五子棋,二人房,131,Gobang,1,1000,"{""1"":{""min"":0,""max"":1000000000,""kick"":0,""takemax"":0}}",1,,[0],1,,2,,,,,,1,,,,,,,,,,,,,,,,,,,,
141001,花色嘉年华,世界房,141,Dantiao,1,2000,,1,,[0],1,,1,,,,,,1,,,,3,,,,,,,,,,,,,,,,
151001,龙虎斗,世界房,151,DragonVsTiger,1,2000,,1,,[0],1,,1,,,,,,1,,,,3,,,,,,,,,,,,,,,,
161001,百家乐,世界房,161,Barracat,1,2000,,1,,[0],1,,1,,,,,,1,,,,5,,,,,,,,,,,,,,,,
171001,诈金花,初级场,171,GlodenFlower,1,2000,"{""10"":{""min"":3000,""max"":1000000000,""kick"":0,""takemax"":0}}",1,,[0],1,,1,,,,,,1,,,,5,,,,,,,,,,,,,,,,
171002,诈金花,中级场,171,GlodenFlower,1,2000,"{""100"":{""min"":30000,""max"":1000000000,""kick"":0,""takemax"":0}}",1,,[0],1,,1,,,,,,1,,,,5,,,,,,,,,,,,,,,,
171003,诈金花,高级场,171,GlodenFlower,1,2000,"{""1000"":{""min"":300000,""max"":1000000000,""kick"":0,""takemax"":0}}",1,,[0],1,,1,,,,,,1,,,,5,,,,,,,,,,,,,,,,
171004,诈金花,世界房,171,GlodenFlower,1,2000,"{""2000"":{""min"":600000,""max"":1000000000,""kick"":0,""takemax"":0}}",1,,[0],1,,1,,,,,,1,,,,,,,,,,,,,,,,,,,,
181001,财神到,世界房,181,Plutus,1,2000,,1,,[0],1,,1,,,,,,1,,,,3,,,,,,,,,,,,,,,,
191001,红黑大战,世界房,191,Red,1,2000,,1,,[0],1,,1,,,,,,1,,,,5,,,,,,,,,,,,,,,,
200001,红包接龙,初级场,200,RedEnvelope,1,2000,"{""1000"":{""min"":5000,""max"":1000000000}}",1,,[0],1,,1,,,,,,1,,,,3,,,,,,,,,,,,,,,,
200002,红包接龙,中级场,200,RedEnvelope,1,2000,"{""5000"":{""min"":25000,""max"":1000000000}}",1,,[0],1,,1,,,,,,1,,,,3,,,,,,,,,,,,,,,,
200003,红包接龙,高级场,200,RedEnvelope,1,2000,"{""10000"":{""min"":50000,""max"":1000000000}}",1,,[0],1,,1,,,,,,1,,,,3,,,,,,,,,,,,,,,,
201001,抢庄牛牛,普通场,201,RobNiuNiu,1,2000,,1,,[0],1,,1,,,,,,1,,,,,,,,,,,,,,,,,,,,
201002,抢庄牛牛,老板场,201,RobNiuNiu,1,2000,,1,,[0],1,,1,,,,,,1,,,,,,,,,,,,,,,,,,,,
201003,抢庄牛牛,富豪场,201,RobNiuNiu,1,2000,,1,,[0],1,,1,,,,,,1,,,,,,,,,,,,,,,,,,,,
202001,水果机,世界房,202,FruitMachine,1,2000,,1,,[0],1,,1,,,,,,1,,,,3,,,,,,,,,,,,,,,,
203001,飞禽走兽,世界房,203,bird,1,2000,,1,,[0],1,,1,,,,,,1,,,,,,,,,,,,,,,,,,,,
204001,奔驰宝马,世界房,204,bmw,1,2000,,1,,[0],1,,1,,,,,,1,,,,,,,,,,,,,,,,,,,,
205001,21点,初级场,205,21Dot,1,2000,"{""100"":{""min"":3000,""max"":1000000000,""kick"":0,""takemax"":0}}",1,,[0],1,,1,,,,,,1,,,,3,,,,,,,,,,,,,,,,
205002,21点,中级场,205,21Dot,1,2000,"{""500"":{""min"":10000,""max"":1000000000,""kick"":0,""takemax"":0}}",1,,[0],1,,1,,,,,,1,,,,3,,,,,,,,,,,,,,,,
205003,21点,高级场,205,21Dot,1,2000,"{""1000"":{""min"":20000,""max"":1000000000,""kick"":0,""takemax"":0}}",1,,[0],1,,1,,,,,,1,,,,3,,,,,,,,,,,,,,,,