唯一键(固定8位数字),最小基本类型ID(固定6位数字),人数1,人数2,可给最高名次
uniqueId:int,gameAtomTypeId:int,beginNum:int,endNum:int,topRank:int
10120100,101201,1,3,0
10120101,101201,1,1,3
10120102,101201,2,2,2
10120103,101201,3,3,1
10120200,101202,1,9,0
10120201,101202,1,2,5
10120202,101202,3,5,3
10120203,101202,6,7,2
10120204,101202,8,9,1
10120300,101203,1,30,0
10120301,101203,1,6,7
10120302,101203,7,12,4
10120303,101203,13,18,3
10120304,101203,19,24,2
10120305,101203,25,30,1