唯一键(固定8位数字),最小基本类型ID(固定6位数字),排名范围段次序,起始排名,终止排名,排名描述(策划对照配置用),奖励描述(策划对照配置用),奖励金币数量,奖励钻石数量,奖励道具
uniqueId:int,gameAtomTypeId:int,rangeOrder:int,beginRank:int,endRank:int,rankDesc:string,rewardDesc:string,goldCoin:int,diamond:int,itemArr:json:array:CMatchItemReward
10120100,101201,0,,,,斗地主9人比赛场,,,
10120101,101201,1,1,1,第1名,4金币,400,,
10120102,101201,2,2,2,第2名,2.5金币,250,,
10120103,101201,3,3,3,第3名,2金币,200,,
10120200,101202,0,,,,斗地主24人比赛场,,,
10120201,101202,1,1,1,第1名,40金币,4000,,
10120202,101202,2,2,2,第2名,25金币,2500,,
10120203,101202,3,3,3,第3名,15金币,1500,,
10120204,101202,4,4,6,第4-6名,10金币,1000,,
10120300,101203,0,,,,斗地主96人比赛场,,,
10120301,101203,1,1,1,第1名,300金币,30000,,
10120302,101203,2,2,2,第2名,150金币,15000,,
10120303,101203,3,3,3,第3名,100金币,10000,,
10120304,101203,4,4,6,第4-6名,50金币,5000,,
10120305,101203,5,7,12,第7-12名,20金币,2000,,
10120306,101203,6,13,24,第13-24名,10金币,1000,,
10120400,101204,0,,,,斗地主9人比赛场,,,
10120401,101204,1,1,1,第1名,100金币,100,,