索引,字符串值,整型值,备注
key:string,value:string,limit:int,describe:string
maxBetScore,,10000000,最大下注金币数
ExchangeRate,,100,人民币-金币兑换比例(1元人民币兑100金币)
minBetCoin,,3000,玩家身上金币满足该值才让下注(单位:金币)
bulletinLimit,,5000,一局盈利多少显示跑马灯(单位:金币)
chips,"100,1000,5000,10000,50000",,可选用筹码(单位:金币)