唯一id,最小基本类型id,金币id,概率,最低金币,最高金币
uniqueId:int,gameAtomTyprId:int,coinId:int,chance:int,minCoin:int,maxCoin:int
20300101,203001,1,10,10000,30000
20300102,203001,2,40,30000,50000
20300103,203001,3,40,50000,100000
20300104,203001,4,10,100000,500000
