唯一id,最小基本类型id,金币id,概率,最低金币,最高金币
uniqueId:int,gameAtomTyprId:int,coinId:int,chance:int,minCoin:int,maxCoin:int
20100101,201001,1,10,5000,10000
20100102,201001,2,40,10000,50000
20100103,201001,3,40,50000,100000
20100104,201001,4,10,100000,500000
20100201,201002,1,10,50000,100000
20100202,201002,2,45,100000,500000
20100203,201002,3,40,500000,1000000
20100204,201002,4,5,1000000,2000000
20100301,201003,1,10,200000,1000000
20100302,201003,2,45,1000000,2000000
20100303,201003,3,40,2000000,3000000
20100304,201003,4,5,3000000,8000000
